LAB_2/Section_4_4/simulation/qsim/Section_4_4.msim.vcd
$comment
	File created using the following command:
		vcd file Section_4_4.msim.vcd -direction
$end
$date
	Sun Jun 05 15:01:18 2022
$end
$version
	ModelSim Version 10.5b
$end
$timescale
	1ps
$end

$scope module two_bits_adder_vhd_vec_tst $end
$var wire 1 ! KEY [3] $end
$var wire 1 " KEY [2] $end
$var wire 1 # KEY [1] $end
$var wire 1 $ KEY [0] $end
$var wire 1 % LEDG [7] $end
$var wire 1 & LEDG [6] $end
$var wire 1 ' LEDG [5] $end
$var wire 1 ( LEDG [4] $end
$var wire 1 ) LEDG [3] $end
$var wire 1 * LEDG [2] $end
$var wire 1 + LEDG [1] $end
$var wire 1 , LEDG [0] $end
$var wire 1 - LEDR [9] $end
$var wire 1 . LEDR [8] $end
$var wire 1 / LEDR [7] $end
$var wire 1 0 LEDR [6] $end
$var wire 1 1 LEDR [5] $end
$var wire 1 2 LEDR [4] $end
$var wire 1 3 LEDR [3] $end
$var wire 1 4 LEDR [2] $end
$var wire 1 5 LEDR [1] $end
$var wire 1 6 LEDR [0] $end
$var wire 1 7 SW [9] $end
$var wire 1 8 SW [8] $end
$var wire 1 9 SW [7] $end
$var wire 1 : SW [6] $end
$var wire 1 ; SW [5] $end
$var wire 1 < SW [4] $end
$var wire 1 = SW [3] $end
$var wire 1 > SW [2] $end
$var wire 1 ? SW [1] $end
$var wire 1 @ SW [0] $end

$scope module i1 $end
$var wire 1 A gnd $end
$var wire 1 B vcc $end
$var wire 1 C unknown $end
$var wire 1 D devoe $end
$var wire 1 E devclrn $end
$var wire 1 F devpor $end
$var wire 1 G ww_devoe $end
$var wire 1 H ww_devclrn $end
$var wire 1 I ww_devpor $end
$var wire 1 J ww_KEY [3] $end
$var wire 1 K ww_KEY [2] $end
$var wire 1 L ww_KEY [1] $end
$var wire 1 M ww_KEY [0] $end
$var wire 1 N ww_SW [9] $end
$var wire 1 O ww_SW [8] $end
$var wire 1 P ww_SW [7] $end
$var wire 1 Q ww_SW [6] $end
$var wire 1 R ww_SW [5] $end
$var wire 1 S ww_SW [4] $end
$var wire 1 T ww_SW [3] $end
$var wire 1 U ww_SW [2] $end
$var wire 1 V ww_SW [1] $end
$var wire 1 W ww_SW [0] $end
$var wire 1 X ww_LEDR [9] $end
$var wire 1 Y ww_LEDR [8] $end
$var wire 1 Z ww_LEDR [7] $end
$var wire 1 [ ww_LEDR [6] $end
$var wire 1 \ ww_LEDR [5] $end
$var wire 1 ] ww_LEDR [4] $end
$var wire 1 ^ ww_LEDR [3] $end
$var wire 1 _ ww_LEDR [2] $end
$var wire 1 ` ww_LEDR [1] $end
$var wire 1 a ww_LEDR [0] $end
$var wire 1 b ww_LEDG [7] $end
$var wire 1 c ww_LEDG [6] $end
$var wire 1 d ww_LEDG [5] $end
$var wire 1 e ww_LEDG [4] $end
$var wire 1 f ww_LEDG [3] $end
$var wire 1 g ww_LEDG [2] $end
$var wire 1 h ww_LEDG [1] $end
$var wire 1 i ww_LEDG [0] $end
$var wire 1 j \KEY[0]~input_o\ $end
$var wire 1 k \KEY[1]~input_o\ $end
$var wire 1 l \KEY[2]~input_o\ $end
$var wire 1 m \KEY[3]~input_o\ $end
$var wire 1 n \SW[4]~input_o\ $end
$var wire 1 o \SW[5]~input_o\ $end
$var wire 1 p \SW[6]~input_o\ $end
$var wire 1 q \SW[7]~input_o\ $end
$var wire 1 r \SW[8]~input_o\ $end
$var wire 1 s \SW[9]~input_o\ $end
$var wire 1 t \~QUARTUS_CREATED_GND~I_combout\ $end
$var wire 1 u \SW[0]~input_o\ $end
$var wire 1 v \SW[2]~input_o\ $end
$var wire 1 w \component_1|component_1|Sum~combout\ $end
$var wire 1 x \SW[3]~input_o\ $end
$var wire 1 y \SW[1]~input_o\ $end
$var wire 1 z \component_2|component_2|Sum~combout\ $end
$var wire 1 { \component_2|cout~combout\ $end
$var wire 1 | \ALT_INV_SW[0]~input_o\ $end
$var wire 1 } \ALT_INV_SW[1]~input_o\ $end
$var wire 1 ~ \ALT_INV_SW[2]~input_o\ $end
$var wire 1 !! \ALT_INV_SW[3]~input_o\ $end
$upscope $end
$upscope $end
$enddefinitions $end
#0
$dumpvars
0A
1B
xC
1D
1E
1F
1G
1H
1I
xj
xk
xl
xm
xn
xo
xp
xq
xr
xs
xt
0u
0v
0w
0x
0y
0z
0{
1|
1}
1~
1!!
x7
x8
x9
x:
x;
x<
0=
0>
0?
0@
xJ
xK
xL
xM
xN
xO
xP
xQ
xR
xS
0T
0U
0V
0W
0X
0Y
0Z
0[
0\
0]
0^
0_
0`
0a
0b
0c
0d
0e
0f
0g
0h
0i
x!
x"
x#
x$
0%
0&
0'
0(
0)
0*
0+
0,
0-
0.
0/
00
01
02
03
04
05
06
$end
#5000
1@
1W
1u
0|
1w
1a
16
#10000
0@
1?
0W
1V
1y
0u
1|
0}
0w
1z
1`
0a
06
15
#15000
1@
1W
1u
0|
1w
1a
16
#20000
0@
0?
1>
0W
0V
1U
1v
0y
0u
1|
1}
0~
0z
0`
05
#25000
1@
1W
1u
0|
0w
1z
1`
0a
06
15
#30000
0@
1?
0W
1V
1y
0u
1|
0}
1w
1a
16
#35000
1@
1W
1u
0|
0w
0z
1{
1_
0`
0a
06
05
14
#40000
0@
0?
0>
1=
0W
0V
0U
1T
1x
0v
0y
0u
1|
1}
1~
0!!
1z
0{
0_
1`
15
04
#45000
1@
1W
1u
0|
1w
1a
16
#50000
0@
1?
0W
1V
1y
0u
1|
0}
0w
0z
1{
1_
0`
0a
06
05
14
#55000
1@
1W
1u
0|
1w
1a
16
#60000
0@
0?
1>
0W
0V
1U
1v
0y
0u
1|
1}
0~
1z
0{
0_
1`
15
04
#65000
1@
1W
1u
0|
0w
0z
1{
1_
0`
0a
06
05
14
#70000
0@
1?
0W
1V
1y
0u
1|
0}
1w
1a
16
#75000
1@
1W
1u
0|
0w
1z
1`
0a
06
15
#80000
0@
0?
0>
0=
0W
0V
0U
0T
0x
0v
0y
0u
1|
1}
1~
1!!
0z
0{
0_
0`
05
04
#85000
1@
1W
1u
0|
1w
1a
16
#90000
0@
1?
0W
1V
1y
0u
1|
0}
0w
1z
1`
0a
06
15
#95000
1@
1W
1u
0|
1w
1a
16
#100000
0@
0?
1>
0W
0V
1U
1v
0y
0u
1|
1}
0~
0z
0`
05
#105000
1@
1W
1u
0|
0w
1z
1`
0a
06
15
#110000
0@
1?
0W
1V
1y
0u
1|
0}
1w
1a
16
#115000
1@
1W
1u
0|
0w
0z
1{
1_
0`
0a
06
05
14
#120000
0@
0?
0>
1=
0W
0V
0U
1T
1x
0v
0y
0u
1|
1}
1~
0!!
1z
0{
0_
1`
15
04
#125000
1@
1W
1u
0|
1w
1a
16
#130000
0@
1?
0W
1V
1y
0u
1|
0}
0w
0z
1{
1_
0`
0a
06
05
14
#135000
1@
1W
1u
0|
1w
1a
16
#140000
0@
0?
1>
0W
0V
1U
1v
0y
0u
1|
1}
0~
1z
0{
0_
1`
15
04
#145000
1@
1W
1u
0|
0w
0z
1{
1_
0`
0a
06
05
14
#150000
0@
1?
0W
1V
1y
0u
1|
0}
1w
1a
16
#155000
1@
1W
1u
0|
0w
1z
1`
0a
06
15
#160000
0@
0?
0>
0=
0W
0V
0U
0T
0x
0v
0y
0u
1|
1}
1~
1!!
0z
0{
0_
0`
05
04
#165000
1@
1W
1u
0|
1w
1a
16
#170000
0@
1?
0W
1V
1y
0u
1|
0}
0w
1z
1`
0a
06
15
#175000
1@
1W
1u
0|
1w
1a
16
#180000
0@
0?
1>
0W
0V
1U
1v
0y
0u
1|
1}
0~
0z
0`
05
#185000
1@
1W
1u
0|
0w
1z
1`
0a
06
15
#190000
0@
1?
0W
1V
1y
0u
1|
0}
1w
1a
16
#195000
1@
1W
1u
0|
0w
0z
1{
1_
0`
0a
06
05
14
#200000
0@
0?
0>
1=
0W
0V
0U
1T
1x
0v
0y
0u
1|
1}
1~
0!!
1z
0{
0_
1`
15
04
#205000
1@
1W
1u
0|
1w
1a
16
#210000
0@
1?
0W
1V
1y
0u
1|
0}
0w
0z
1{
1_
0`
0a
06
05
14
#215000
1@
1W
1u
0|
1w
1a
16
#220000
0@
0?
1>
0W
0V
1U
1v
0y
0u
1|
1}
0~
1z
0{
0_
1`
15
04
#225000
1@
1W
1u
0|
0w
0z
1{
1_
0`
0a
06
05
14
#230000
0@
1?
0W
1V
1y
0u
1|
0}
1w
1a
16
#235000
1@
1W
1u
0|
0w
1z
1`
0a
06
15
#240000
0@
0?
0>
0=
0W
0V
0U
0T
0x
0v
0y
0u
1|
1}
1~
1!!
0z
0{
0_
0`
05
04
#245000
1@
1W
1u
0|
1w
1a
16
#250000
0@
1?
0W
1V
1y
0u
1|
0}
0w
1z
1`
0a
06
15
#255000
1@
1W
1u
0|
1w
1a
16
#260000
0@
0?
1>
0W
0V
1U
1v
0y
0u
1|
1}
0~
0z
0`
05
#265000
1@
1W
1u
0|
0w
1z
1`
0a
06
15
#270000
0@
1?
0W
1V
1y
0u
1|
0}
1w
1a
16
#275000
1@
1W
1u
0|
0w
0z
1{
1_
0`
0a
06
05
14
#280000
0@
0?
0>
1=
0W
0V
0U
1T
1x
0v
0y
0u
1|
1}
1~
0!!
1z
0{
0_
1`
15
04
#285000
1@
1W
1u
0|
1w
1a
16
#290000
0@
1?
0W
1V
1y
0u
1|
0}
0w
0z
1{
1_
0`
0a
06
05
14
#295000
1@
1W
1u
0|
1w
1a
16
#300000
0@
0?
1>
0W
0V
1U
1v
0y
0u
1|
1}
0~
1z
0{
0_
1`
15
04
#305000
1@
1W
1u
0|
0w
0z
1{
1_
0`
0a
06
05
14
#310000
0@
1?
0W
1V
1y
0u
1|
0}
1w
1a
16
#315000
1@
1W
1u
0|
0w
1z
1`
0a
06
15
#320000
0@
0?
0>
0=
0W
0V
0U
0T
0x
0v
0y
0u
1|
1}
1~
1!!
0z
0{
0_
0`
05
04
#325000
1@
1W
1u
0|
1w
1a
16
#330000
0@
1?
0W
1V
1y
0u
1|
0}
0w
1z
1`
0a
06
15
#335000
1@
1W
1u
0|
1w
1a
16
#340000
0@
0?
1>
0W
0V
1U
1v
0y
0u
1|
1}
0~
0z
0`
05
#345000
1@
1W
1u
0|
0w
1z
1`
0a
06
15
#350000
0@
1?
0W
1V
1y
0u
1|
0}
1w
1a
16
#355000
1@
1W
1u
0|
0w
0z
1{
1_
0`
0a
06
05
14
#360000
0@
0?
0>
1=
0W
0V
0U
1T
1x
0v
0y
0u
1|
1}
1~
0!!
1z
0{
0_
1`
15
04
#365000
1@
1W
1u
0|
1w
1a
16
#370000
0@
1?
0W
1V
1y
0u
1|
0}
0w
0z
1{
1_
0`
0a
06
05
14
#375000
1@
1W
1u
0|
1w
1a
16
#380000
0@
0?
1>
0W
0V
1U
1v
0y
0u
1|
1}
0~
1z
0{
0_
1`
15
04
#385000
1@
1W
1u
0|
0w
0z
1{
1_
0`
0a
06
05
14
#390000
0@
1?
0W
1V
1y
0u
1|
0}
1w
1a
16
#395000
1@
1W
1u
0|
0w
1z
1`
0a
06
15
#400000
0@
0?
0>
0=
0W
0V
0U
0T
0x
0v
0y
0u
1|
1}
1~
1!!
0z
0{
0_
0`
05
04
#405000
1@
1W
1u
0|
1w
1a
16
#410000
0@
1?
0W
1V
1y
0u
1|
0}
0w
1z
1`
0a
06
15
#415000
1@
1W
1u
0|
1w
1a
16
#420000
0@
0?
1>
0W
0V
1U
1v
0y
0u
1|
1}
0~
0z
0`
05
#425000
1@
1W
1u
0|
0w
1z
1`
0a
06
15
#430000
0@
1?
0W
1V
1y
0u
1|
0}
1w
1a
16
#435000
1@
1W
1u
0|
0w
0z
1{
1_
0`
0a
06
05
14
#440000
0@
0?
0>
1=
0W
0V
0U
1T
1x
0v
0y
0u
1|
1}
1~
0!!
1z
0{
0_
1`
15
04
#445000
1@
1W
1u
0|
1w
1a
16
#450000
0@
1?
0W
1V
1y
0u
1|
0}
0w
0z
1{
1_
0`
0a
06
05
14
#455000
1@
1W
1u
0|
1w
1a
16
#460000
0@
0?
1>
0W
0V
1U
1v
0y
0u
1|
1}
0~
1z
0{
0_
1`
15
04
#465000
1@
1W
1u
0|
0w
0z
1{
1_
0`
0a
06
05
14
#470000
0@
1?
0W
1V
1y
0u
1|
0}
1w
1a
16
#475000
1@
1W
1u
0|
0w
1z
1`
0a
06
15
#480000
0@
0?
0>
0=
0W
0V
0U
0T
0x
0v
0y
0u
1|
1}
1~
1!!
0z
0{
0_
0`
05
04
#485000
1@
1W
1u
0|
1w
1a
16
#490000
0@
1?
0W
1V
1y
0u
1|
0}
0w
1z
1`
0a
06
15
#495000
1@
1W
1u
0|
1w
1a
16
#500000
0@
0?
1>
0W
0V
1U
1v
0y
0u
1|
1}
0~
0z
0`
05
#505000
1@
1W
1u
0|
0w
1z
1`
0a
06
15
#510000
0@
1?
0W
1V
1y
0u
1|
0}
1w
1a
16
#515000
1@
1W
1u
0|
0w
0z
1{
1_
0`
0a
06
05
14
#520000
0@
0?
0>
1=
0W
0V
0U
1T
1x
0v
0y
0u
1|
1}
1~
0!!
1z
0{
0_
1`
15
04
#525000
1@
1W
1u
0|
1w
1a
16
#530000
0@
1?
0W
1V
1y
0u
1|
0}
0w
0z
1{
1_
0`
0a
06
05
14
#535000
1@
1W
1u
0|
1w
1a
16
#540000
0@
0?
1>
0W
0V
1U
1v
0y
0u
1|
1}
0~
1z
0{
0_
1`
15
04
#545000
1@
1W
1u
0|
0w
0z
1{
1_
0`
0a
06
05
14
#550000
0@
1?
0W
1V
1y
0u
1|
0}
1w
1a
16
#555000
1@
1W
1u
0|
0w
1z
1`
0a
06
15
#560000
0@
0?
0>
0=
0W
0V
0U
0T
0x
0v
0y
0u
1|
1}
1~
1!!
0z
0{
0_
0`
05
04
#565000
1@
1W
1u
0|
1w
1a
16
#570000
0@
1?
0W
1V
1y
0u
1|
0}
0w
1z
1`
0a
06
15
#575000
1@
1W
1u
0|
1w
1a
16
#580000
0@
0?
1>
0W
0V
1U
1v
0y
0u
1|
1}
0~
0z
0`
05
#585000
1@
1W
1u
0|
0w
1z
1`
0a
06
15
#590000
0@
1?
0W
1V
1y
0u
1|
0}
1w
1a
16
#595000
1@
1W
1u
0|
0w
0z
1{
1_
0`
0a
06
05
14
#600000
0@
0?
0>
1=
0W
0V
0U
1T
1x
0v
0y
0u
1|
1}
1~
0!!
1z
0{
0_
1`
15
04
#605000
1@
1W
1u
0|
1w
1a
16
#610000
0@
1?
0W
1V
1y
0u
1|
0}
0w
0z
1{
1_
0`
0a
06
05
14
#615000
1@
1W
1u
0|
1w
1a
16
#620000
0@
0?
1>
0W
0V
1U
1v
0y
0u
1|
1}
0~
1z
0{
0_
1`
15
04
#625000
1@
1W
1u
0|
0w
0z
1{
1_
0`
0a
06
05
14
#630000
0@
1?
0W
1V
1y
0u
1|
0}
1w
1a
16
#635000
1@
1W
1u
0|
0w
1z
1`
0a
06
15
#640000
0@
0?
0>
0=
0W
0V
0U
0T
0x
0v
0y
0u
1|
1}
1~
1!!
0z
0{
0_
0`
05
04
#645000
1@
1W
1u
0|
1w
1a
16
#650000
0@
1?
0W
1V
1y
0u
1|
0}
0w
1z
1`
0a
06
15
#655000
1@
1W
1u
0|
1w
1a
16
#660000
0@
0?
1>
0W
0V
1U
1v
0y
0u
1|
1}
0~
0z
0`
05
#665000
1@
1W
1u
0|
0w
1z
1`
0a
06
15
#670000
0@
1?
0W
1V
1y
0u
1|
0}
1w
1a
16
#675000
1@
1W
1u
0|
0w
0z
1{
1_
0`
0a
06
05
14
#680000
0@
0?
0>
1=
0W
0V
0U
1T
1x
0v
0y
0u
1|
1}
1~
0!!
1z
0{
0_
1`
15
04
#685000
1@
1W
1u
0|
1w
1a
16
#690000
0@
1?
0W
1V
1y
0u
1|
0}
0w
0z
1{
1_
0`
0a
06
05
14
#695000
1@
1W
1u
0|
1w
1a
16
#700000
0@
0?
1>
0W
0V
1U
1v
0y
0u
1|
1}
0~
1z
0{
0_
1`
15
04
#705000
1@
1W
1u
0|
0w
0z
1{
1_
0`
0a
06
05
14
#710000
0@
1?
0W
1V
1y
0u
1|
0}
1w
1a
16
#715000
1@
1W
1u
0|
0w
1z
1`
0a
06
15
#720000
0@
0?
0>
0=
0W
0V
0U
0T
0x
0v
0y
0u
1|
1}
1~
1!!
0z
0{
0_
0`
05
04
#725000
1@
1W
1u
0|
1w
1a
16
#730000
0@
1?
0W
1V
1y
0u
1|
0}
0w
1z
1`
0a
06
15
#735000
1@
1W
1u
0|
1w
1a
16
#740000
0@
0?
1>
0W
0V
1U
1v
0y
0u
1|
1}
0~
0z
0`
05
#745000
1@
1W
1u
0|
0w
1z
1`
0a
06
15
#750000
0@
1?
0W
1V
1y
0u
1|
0}
1w
1a
16
#755000
1@
1W
1u
0|
0w
0z
1{
1_
0`
0a
06
05
14
#760000
0@
0?
0>
1=
0W
0V
0U
1T
1x
0v
0y
0u
1|
1}
1~
0!!
1z
0{
0_
1`
15
04
#765000
1@
1W
1u
0|
1w
1a
16
#770000
0@
1?
0W
1V
1y
0u
1|
0}
0w
0z
1{
1_
0`
0a
06
05
14
#775000
1@
1W
1u
0|
1w
1a
16
#780000
0@
0?
1>
0W
0V
1U
1v
0y
0u
1|
1}
0~
1z
0{
0_
1`
15
04
#785000
1@
1W
1u
0|
0w
0z
1{
1_
0`
0a
06
05
14
#790000
0@
1?
0W
1V
1y
0u
1|
0}
1w
1a
16
#795000
1@
1W
1u
0|
0w
1z
1`
0a
06
15
#800000
0@
0?
0>
0=
0W
0V
0U
0T
0x
0v
0y
0u
1|
1}
1~
1!!
0z
0{
0_
0`
05
04
#805000
1@
1W
1u
0|
1w
1a
16
#810000
0@
1?
0W
1V
1y
0u
1|
0}
0w
1z
1`
0a
06
15
#815000
1@
1W
1u
0|
1w
1a
16
#820000
0@
0?
1>
0W
0V
1U
1v
0y
0u
1|
1}
0~
0z
0`
05
#825000
1@
1W
1u
0|
0w
1z
1`
0a
06
15
#830000
0@
1?
0W
1V
1y
0u
1|
0}
1w
1a
16
#835000
1@
1W
1u
0|
0w
0z
1{
1_
0`
0a
06
05
14
#840000
0@
0?
0>
1=
0W
0V
0U
1T
1x
0v
0y
0u
1|
1}
1~
0!!
1z
0{
0_
1`
15
04
#845000
1@
1W
1u
0|
1w
1a
16
#850000
0@
1?
0W
1V
1y
0u
1|
0}
0w
0z
1{
1_
0`
0a
06
05
14
#855000
1@
1W
1u
0|
1w
1a
16
#860000
0@
0?
1>
0W
0V
1U
1v
0y
0u
1|
1}
0~
1z
0{
0_
1`
15
04
#865000
1@
1W
1u
0|
0w
0z
1{
1_
0`
0a
06
05
14
#870000
0@
1?
0W
1V
1y
0u
1|
0}
1w
1a
16
#875000
1@
1W
1u
0|
0w
1z
1`
0a
06
15
#880000
0@
0?
0>
0=
0W
0V
0U
0T
0x
0v
0y
0u
1|
1}
1~
1!!
0z
0{
0_
0`
05
04
#885000
1@
1W
1u
0|
1w
1a
16
#890000
0@
1?
0W
1V
1y
0u
1|
0}
0w
1z
1`
0a
06
15
#895000
1@
1W
1u
0|
1w
1a
16
#900000
0@
0?
1>
0W
0V
1U
1v
0y
0u
1|
1}
0~
0z
0`
05
#905000
1@
1W
1u
0|
0w
1z
1`
0a
06
15
#910000
0@
1?
0W
1V
1y
0u
1|
0}
1w
1a
16
#915000
1@
1W
1u
0|
0w
0z
1{
1_
0`
0a
06
05
14
#920000
0@
0?
0>
1=
0W
0V
0U
1T
1x
0v
0y
0u
1|
1}
1~
0!!
1z
0{
0_
1`
15
04
#925000
1@
1W
1u
0|
1w
1a
16
#930000
0@
1?
0W
1V
1y
0u
1|
0}
0w
0z
1{
1_
0`
0a
06
05
14
#935000
1@
1W
1u
0|
1w
1a
16
#940000
0@
0?
1>
0W
0V
1U
1v
0y
0u
1|
1}
0~
1z
0{
0_
1`
15
04
#945000
1@
1W
1u
0|
0w
0z
1{
1_
0`
0a
06
05
14
#950000
0@
1?
0W
1V
1y
0u
1|
0}
1w
1a
16
#955000
1@
1W
1u
0|
0w
1z
1`
0a
06
15
#960000
0@
0?
0>
0=
0W
0V
0U
0T
0x
0v
0y
0u
1|
1}
1~
1!!
0z
0{
0_
0`
05
04
#965000
1@
1W
1u
0|
1w
1a
16
#970000
0@
1?
0W
1V
1y
0u
1|
0}
0w
1z
1`
0a
06
15
#975000
1@
1W
1u
0|
1w
1a
16
#980000
0@
0?
1>
0W
0V
1U
1v
0y
0u
1|
1}
0~
0z
0`
05
#985000
1@
1W
1u
0|
0w
1z
1`
0a
06
15
#990000
0@
1?
0W
1V
1y
0u
1|
0}
1w
1a
16
#995000
1@
1W
1u
0|
0w
0z
1{
1_
0`
0a
06
05
14
